…
```

#### Future Data
Next, make a future dataset using future_frame() from timetk, which creates future time stamps that extend 52-weeks into the future for each ID in the same panel structure needed for our global forecast model.
```{r}
future_tbl <- data_tbl %>%
  group_by(id) %>%
  future_frame(.length_out = 52, .bind_data = FALSE)

future_tbl
#> # A tibble: 364 × 2
#> # Groups:   id [7]
#>    id    date      
#>    <fct> <date>    
#>  1 1_1   2012-11-02
#>  2 1_1   2012-11-09
#>  3 1_1   2012-11-16
#>  4 1_1   2012-11-23
#>  5 1_1   2012-11-30
#>  6 1_1   2012-12-07
#>  7 1_1   2012-12-14
#>  8 1_1   2012-12-21
#>  9 1_1   2012-12-28
#> 10 1_1   2013-01-04
#> # ℹ 354 more rows
```
…
